…
Japan <- nutri %>% filter(country == "Japan") 
mean(Japan$sugar, na.rm = TRUE) 

## [1] 81.08868

The mean quantity of sugar consumed by all countries and all years in 77 grams. When the dataset is filtered to only show Japan, the mean sugar intake rises to 81.1 grams.

sugarcals <- nutri %>% mutate(percent.cals.from.sugar=((sugar*4)/calories)*100)  

This table has a new column for the percentage of calories that came from sugar on average per day. For example, in New Zealand in 2012, 20.1% of their daily calories came from sugar.

nutri %>% group_by(country) %>%summarize(mean_cal=mean(calories, na.rm=T),sd_cal=sd(calories, na.rm=T)) %>% arrange(mean_cal) ##This gives the mean and standard deviation for calories  for each country for all years, then arranges them by highest mean calories to the lowest.

## # A tibble: 167 x 3
##    country      mean_cal sd_cal
##    <chr>           <dbl>  <dbl>
##  1 Myanmar         1770    335.
##  2 Djibouti        1795.   342.
##  3 Ethiopia        1858.   197.
##  4 Angola          1892.   222.
##  5 Mozambique      1903.   162.
##  6 Haiti           1905.   101.
##  7 Chad            1922.   234.
##  8 Timor-Leste     1938.   164.
##  9 Burkina Faso    1984.   459.
## 10 Cambodia        2008.   245.
## # … with 157 more rows

nutri %>% group_by(country) %>%summarize(mean_cal=mean(calories, na.rm=T),sd_cal=sd(calories, na.rm=T)) %>% arrange(sd_cal) ##This gives the mean and standard deviation for calories  for each country for all years, then arranges them by highest standard deveation in calories to the lowest.

## # A tibble: 167 x 3
##    country         mean_cal sd_cal
##    <chr>              <dbl>  <dbl>
##  1 Belgium            3720    15.2
##  2 Serbia             2731.   16.4
##  3 Luxembourg         3506.   21.7
##  4 Slovak Republic    2865.   63.9
##  5 Australia          3113.   66.6
##  6 Switzerland        3421.   67.0
##  7 Montenegro         3432.   75.2
##  8 Namibia            2165.   79.6
##  9 Tajikistan         2024.   79.7
## 10 South Africa       2854.   80.9
## # … with 157 more rows
…
